@startuml
class NomClasse {
+atributPúblic : tipus
#atributProtegit : tipus
~atributDefault : tipus
-atributPrivat : tipus
{static} atributEstàtic : tipus
+mètodePúblic(paràmetre1 : tipus, paràmetre2 : tipus) : tipusDeRetorn
#mètodeProtegit()
~mètodeDefault()
-mètodePrivat()
{static} mètodeEstàtic()
}

abstract class ClassAbstracte {
+{abstract} mètodeAbstracte()
}

interface NomInterfície {
+{abstract} mètode()
}
@enduml
