@startuml
participant Jardin
participant Altibus
participant nAltibus
participant Semilla

[-> Jardin: tiempo ()
activate Jardin
Jardin ->Altibus: plantaCreix()
activate Altibus
Altibus -> nAltibus: nAltibus()
activate nAltibus
Altibus <-- nAltibus
deactivate nAltibus
Altibus ->Semilla:Semilla()
activate Semilla
Altibus <-- Semilla
deactivate Semilla
Jardin <--Altibus: return new Semilla (new Semilla)
deactivate Altibus
Jardin -> Altibus: esViva()
activate Altibus
Jardin <-- Altibus: return boolean
deactivate Altibus
Jardin -> Altibus: escampaSemilla()
activate Altibus
Jardin <-- Altibus: return posicion
deactivate Altibus

[-> Jardin: toString()
Jardin -> Altibus: getChar(nivell)
activate Altibus
Jardin <-- Altibus: return char
deactivate Altibus

[<-- Jardin: return String
@enduml
