@startuml
Abstract Class Animal {
+ mou()
+ alimenta()
+ expresarse()
}

Class Zoo {
+ afegeixAnimal(Animal)
+ eliminaAnimal(Animal)
+ eliminaTotsAnimals()
+ mira()
+ surt()
}

Class RolEspectador {
+ Observa(Animal)
}

Class Persona{

}

Animal "0..* " <-- "1 " Zoo

Zoo "1" <--"0..*" Persona
Persona <-- RolEspectador 

Animal <|-- Vaca

Animal <|-- Cocodril

@enduml
